609308 904001 525
595493 979565 525
434445 504427 444
550436 715750 509
84259 285467 443
293513 563343 470
43493 71981 340
307319 508495 449
794076 924527 525
760002 966031 525
371246 859374 525
87856 658788 509
984146 989184 427
191074 569309 470
292611 590194 470
231779 341901 407
793664 835449 468
141303 213558 383
195670 543330 470
335414 649789 509
277521 709163 509
694794 819885 504
750743 752214 331
634237 904447 525
663172 843593 525
332181 785431 509
702880 757276 504
414177 867063 525
355999 654123 509
281678 568799 470
14489 608142 470
256944 358908 441
420704 581496 470
40516 707500 509
575687 930034 525
859074 989147 507
34449 740219 509
137541 937408 525
155118 932081 525
325228 712246 509
835416 968840 525
669629 937220 525
687741 701364 442
425662 672994 509
966137 980945 458
882556 970507 507
42596 79992 351
753393 777052 468
615770 985735 525
950567 969998 414
508225 962132 525
296756 908188 525
464242 671145 509
996736 997299 352
433423 589934 470
186460 935335 525
560790 640755 509
178938 677977 509
636519 782920 504
456797 724466 509
480855 745152 509
642095 874318 525
783590 921925 525
956746 956798 246
31919 750331 509
185547 593109 470
386658 543317 470
424677 870041 525
188541 948489 525
549244 611409 434
761327 811702 468
931609 954640 507
296853 488503 449
162609 920871 525
78017 311166 443
625549 782964 509
148132 485772 449
749179 791913 468
19777 423968 449
970601 985454 427
14969 487228 449
560043 892062 525
522662 729428 509
491349 952879 525
118343 769723 509
112735 721563 509
736603 897033 525
177982 578772 470
210901 310621 443
852338 891119 445
179386 407643 443
231757 305926 407
81583 351762 443
841106 970481 507
981317 998701 440
304046 409230 441
836229 921746 525
808674 920289 525
255507 716461 509
298524 482858 449
310024 498545 449
289972 299873 371
572087 746796 509
901796 974807 507
774255 949964 525
983555 991381 427
357112 817102 509
542572 786847 509
767840 826246 468
801055 925581 525
472862 788851 509
823662 920559 525
84204 677260 509
54857 302373 443
269185 912784 525
83849 541632 470
917816 954814 507
565014 615417 447
216114 728305 509
836264 975273 525
590987 788728 509
449690 462602 444
83362 310275 443
386343 796890 509
520510 846563 525
267884 761820 509
708956 802850 468
640931 833537 504
883224 927285 476
105089 892447 525
582513 645296 509
850846 941323 507
178435 463613 449
237601 695762 509
439165 740807 509
599385 891049 525
141965 322677 443
5255 939231 525
360662 687067 509
225550 423794 449
736487 998091 525
235263 439045 449
878816 941028 507
550882 721854 509
559975 740111 509
316791 397850 441
374080 901065 525
704643 758535 424
170802 662118 509
136800 715491 509
922310 938289 476
366187 943779 525
351063 887630 525
556773 654097 509
782611 788008 375
725960 886698 525
819376 998926 525
121292 127399 336
789672 864862 525
732337 990470 525
8295 17956 279
542750 812153 509
382485 547013 470
251927 674385 509
82744 927849 525
723334 740693 424
350818 451615 449
656783 902055 525
398077 929773 525
392942 955931 525
497235 650443 509
960224 976933 458
331179 580115 470
93080 726279 509
86543 371349 443
947434 981775 458
770448 914553 525
407561 419433 449
739111 843475 525
912315 926485 445
121672 356909 443
210460 305077 443
266235 567692 470
435748 516658 470
654761 726055 504
327916 515604 470
656726 814934 504
644645 645160 279
134226 680554 509
437005 743485 509
648549 854311 525
549304 902998 525
703170 962901 525
509969 971567 525
611527 678602 509
139780 519118 470
357068 655221 509
722954 913550 525
868924 981172 507
905277 982433 507
