37300 798700 509
447070 942143 525
891884 467811 525
514855 432178 470
438414 513017 470
378519 803710 509
191613 15015 383
559113 60692 470
713706 842188 525
448554 870670 525
271989 41417 443
144835 477069 449
336013 152879 443
287110 357717 441
93725 591404 470
67691 127889 354
273537 983941 525
53170 349989 443
91445 453611 449
656769 83672 509
375642 57843 443
803723 480351 509
369108 344723 441
9561 496711 449
41000 328010 443
617156 965777 525
855946 201454 525
324691 379804 441
710784 847732 525
614439 551159 434
444501 654067 509
538218 108644 470
826553 673639 504
747030 617584 509
765666 120761 509
185645 449817 449
432783 820224 509
523904 19202 470
884798 52527 525
791953 931773 525
827078 472401 509
192552 176889 365
646532 933948 525
592065 434297 470
258187 733873 509
910191 197334 525
305764 134831 443
881656 699513 525
38204 475192 449
256915 147112 443
995267 375659 525
936929 539542 525
24125 40387 324
529115 178962 470
166295 886253 525
232086 225803 443
553491 780233 509
149404 547474 470
405832 95588 443
671701 683384 385
610188 518355 452
406989 926007 525
894965 964488 507
756193 18765 509
638061 19001 509
861633 297568 525
482602 322494 449
811155 269148 509
345471 805257 509
613858 856248 525
64775 735826 509
83141 693316 509
572555 868655 525
899689 287495 525
65129 433306 449
988988 355580 525
986958 459366 525
933309 905743 476
337715 297937 384
328836 90460 443
405511 863269 525
459949 328045 449
896891 264769 525
707268 160885 509
116724 863905 525
726264 457062 509
491815 263630 449
10037 350017 443
908704 640302 525
828393 995911 525
7672 616421 470
5491 369702 443
890303 766075 525
116438 737514 509
547486 839650 525
343764 231797 407
244111 942559 525
576099 393636 470
306456 264009 407
835149 523443 509
736283 980077 525
692317 829804 504
231239 164034 443
228459 205825 386
109900 698225 509
788018 401206 509
362626 602873 470
993964 13355 525
542507 302917 470
945862 676483 525
277455 14523 443
389603 435616 449
435166 365682 449
221950 862544 525
95261 600900 470
223611 692655 509
586215 990464 525
939709 416372 525
113137 881386 525
687424 783310 504
548867 240399 470
652221 198888 509
286879 339856 389
79837 193713 383
554951 396114 470
224020 808507 509
911520 128248 525
232347 976317 525
602882 796134 509
214481 750231 509
384778 378822 379
51437 354881 443
194178 461969 449
377540 678540 509
635858 772592 504
703301 667043 442
413117 284396 449
616491 94937 470
508374 251643 449
485599 760293 509
624003 76169 470
424416 507866 444
438919 751109 509
745308 274202 509
40212 394365 443
94028 93670 253
61684 136011 354
545165 957427 525
451503 347344 449
235462 717003 509
422739 285440 449
65910 105722 351
213257 806243 509
448592 693717 509
147236 726064 509
529757 437259 470
588758 476639 470
104093 917267 525
73749 785210 509
818271 465366 509
339699 431543 449
350327 122127 443
293379 755493 509
556337 529918 452
510994 46113 449
45470 946591 525
676007 599588 509
577602 59607 470
650837 377692 509
592213 659724 509
461339 704037 509
326297 32875 443
886847 196516 525
719627 423618 509
461893 30934 449
813340 634740 504
845121 10666 525
53493 741219 509
381896 374614 423
621475 387100 470
493712 924502 525
236197 404226 441
146906 515694 470
752241 276967 509
725959 595535 509
532571 308281 470
876600 582932 525
372873 339283 441
376507 620698 470
772193 65867 509
629143 998602 525
7778 123371 354
362232 804850 509
529512 10555 470
804498 655339 504
91641 548691 470
681681 610536 509
366803 238721 441
266011 963519 525
533516 304267 470
634764 95463 509
616043 536816 452
629915 925525 525
701932 482575 509
529167 440143 470
938877 287266 525
272004 347954 441
880624 269716 525
162256 767303 509
443320 733121 509
235234 481627 449
113480 651041 509
667853 596711 509
59847 976649 525
176699 959544 525
393374 124038 443
500692 825546 509
458174 413970 418
321856 102174 443
515741 906790 525
213114 793474 509
913516 412560 525
453270 735649 509
208672 953085 525
107448 725202 509
317762 909144 525
254917 287367 407
464134 195972 449
932902 271549 525
224075 114489 386
119367 695822 509
173064 790946 509
800302 884314 525
235988 922735 525
863704 645310 525
235797 410457 449
475690 37700 449
949186 741794 525
412718 506668 444
120295 796587 509
856885 556241 525
939555 122469 525
662949 375225 509
615985 375022 470
576686 747313 509
139061 735081 509
815709 138603 509
301741 7309 443
811036 967314 525
994021 283288 525
