481857 291042 449
583898 530889 452
392885 421706 449
651856 454587 509
653745 347716 509
73714 499259 449
388380 734154 509
219680 822314 509
278987 407254 441
654520 275528 509
29866 884407 525
980303 498000 525
638509 512657 509
723223 22360 509
883634 780373 525
647493 900084 525
474910 100755 449
830643 922759 525
349661 354601 379
59703 627314 509
685735 1921 509
265805 947422 525
536275 855561 525
313699 739695 509
309281 872594 525
946738 270993 525
578375 777449 509
529736 854310 525
326440 392254 441
9380 826698 509
536969 187330 470
30497 77717 351
796346 894115 525
955113 608269 525
298473 690589 509
91128 960353 525
354912 700718 509
311217 455233 449
900813 212734 525
627843 694988 442
326266 118106 443
867359 145349 525
467105 138977 449
160963 525993 470
576366 359454 470
194108 51501 383
48334 378086 443
433174 733942 509
225634 860106 525
564230 717810 509
869283 312839 525
638229 728996 504
808413 526183 509
989450 267087 525
549399 988196 525
762425 126840 509
987803 6949 525
802866 24300 509
30083 585290 470
359852 843038 525
563520 636512 509
869971 734921 525
874898 486290 525
712315 123986 509
471800 645578 509
929468 876130 476
841021 641027 525
667525 120952 509
221799 119131 386
613298 743954 509
222587 55971 386
784759 469821 509
575753 994979 525
443037 539275 470
643887 948699 525
952 902737 525
675930 364997 509
592342 946785 525
677545 76467 509
159204 464763 449
51217 355641 443
189090 758486 509
387127 717497 509
739418 387146 509
711712 281241 509
275727 827567 509
322022 810040 509
307558 728013 509
908659 347686 525
711896 995187 525
329727 467106 449
718144 802923 468
152206 708383 509
347159 124168 443
62414 185957 383
852701 467288 525
741970 749880 393
201977 538256 470
291075 94743 443
323557 218333 443
224249 813877 509
555467 520402 452
73808 762421 509
615976 886278 525
644865 449897 509
636228 701728 442
725795 195973 509
231792 720504 509
520180 451120 470
911973 186262 525
968469 969371 352
822988 469264 509
322107 574041 470
248799 307124 407
171612 921582 525
498495 893091 525
360265 306750 441
569092 779699 509
690717 862747 525
206547 428054 449
986190 446651 525
302283 309909 371
225778 856347 525
864388 79364 525
393120 792329 509
833966 552989 509
264074 972808 525
489176 776231 509
971373 649408 525
694430 935967 525
350353 632048 509
717334 35264 509
3441 147207 375
520946 527463 408
915288 906016 476
855083 984470 507
684877 421594 509
42616 471020 449
161884 100881 383
150403 936080 525
730634 523 509
840525 85854 525
761076 944502 525
193039 797262 509
943401 321906 525
183987 522169 470
462765 710264 509
230810 327292 407
48245 6315 324
394319 881748 525
930422 411810 525
778690 696423 504
807066 16229 509
164418 63990 383
759181 79279 509
421046 675087 509
482988 945352 525
117697 393763 443
707164 667748 504
408243 809647 509
941898 653445 525
263540 712942 509
360216 144281 443
178341 872824 525
952018 926390 507
680947 371305 509
240323 181088 443
942291 476400 525
253495 820329 509
604073 250344 470
86462 484782 449
93352 796706 509
794708 818304 468
890512 756787 525
121835 714257 509
405510 354426 436
294216 408932 441
858737 677127 525
815608 268300 509
504838 589670 470
935383 515030 525
160418 119532 383
273329 219098 443
778975 125474 509
245688 634161 509
602162 766266 509
965823 181087 525
110970 936822 525
383124 719181 509
147485 395200 443
639365 117555 509
131314 195757 383
976270 627393 525
660662 68865 509
369298 139729 443
150052 633767 509
6630 657330 509
824096 180132 509
736091 184911 509
881630 75185 525
400740 194691 443
253775 141907 443
201939 827280 509
359875 158436 443
507208 798244 509
76726 296933 443
480316 725970 509
593905 528329 452
779805 533598 509
735854 460007 509
735868 424603 509
342865 385950 441
939867 375449 525
907696 604540 525
65299 583460 470
191301 596504 470
375305 680461 509
9118 743201 509
732737 740302 424
232298 412479 449
655992 734918 504
859064 759156 525
505550 130679 449
349132 355259 379
335435 491772 449
846040 196876 525
648144 886064 525
126836 548278 470
142280 86728 354
539733 240266 470
565321 242464 470
489324 997201 525
468923 28582 449
25476 205377 383
733904 93570 509
866105 364450 525
763517 448949 509
790051 374656 509
561195 449145 470
80956 598792 470
760342 502520 509
433491 695748 509
156849 720721 509
781352 242551 509
306972 876965 525
356234 718118 509
484128 435063 444
160115 365609 443
655424 750853 504
170616 398183 443
511613 445807 444
141332 938424 525
47486 514721 470
565057 983613 525
309575 706713 509
777341 217095 509
764535 879634 525
629965 188462 509
694889 143627 509
588102 209431 470
860290 112242 525
972808 802347 525
843199 149760 525
818290 142703 509
623443 638667 509
142004 496234 449
913299 54207 525
692195 512960 509
749445 187467 509
517203 146298 470
166142 114127 383
789120 744621 468
102570 433946 449
879741 832041 525
581069 115716 470
598135 746039 509
243831 403466 441
609269 167922 470
17339 217869 386
720784 782407 468
23903 796252 509
782457 240314 509
482802 373810 449
847797 448449 525
44693 972664 525
486440 351928 449
836804 215601 509
462114 272216 449
798618 221817 509
120643 100669 354
384434 755549 509
488107 20466 449
257833 697926 509
439025 756504 509
457018 32666 449
521358 528857 408
248510 571896 470
488737 673996 509
140661 350646 443
395724 939031 525
