625 79 144
129 482 144
751 431 171
554 750 171
987 622 179
554 512 137
865 734 153
776 627 171
827 560 171
533 119 144
560 537 137
331 317 144
130 159 117
624 487 142
580 216 144
496 899 179
962 714 179
101 606 144
21 266 128
778 335 171
114 315 131
110 76 119
4 612 144
369 763 171
268 740 171
967 7 179
668 873 179
466 346 134
175 848 171
246 755 171
433 906 179
50 515 144
807 340 171
50 8 112
200 868 171
511 285 144
138 209 125
206 479 144
616 882 179
917 65 179
487 772 171
159 330 144
701 946 179
794 746 153
784 232 171
22 255 128
703 864 171
630 117 144
177 275 128
142 900 179
635 908 179
906 88 179
74 276 128
696 566 145
146 800 171
97 530 144
422 768 171
818 712 153
257 341 144
702 423 145
100 517 144
619 544 137
542 395 142
200 498 144
894 866 179
123 12 119
853 129 171
275 955 179
380 236 144
159 893 179
801 504 171
181 908 179
550 388 142
525 582 137
54 506 144
979 932 174
670 176 145
26 310 128
451 560 142
932 483 179
620 104 144
447 800 171
602 524 137
314 920 179
817 493 171
143 200 125
951 245 179
87 909 179
770 768 34
743 207 171
581 905 179
74 794 171
392 869 171
372 673 145
352 970 179
891 273 179
56 132 122
591 259 144
199 534 144
820 452 171
363 187 144
807 89 171
705 945 179
752 327 171
415 915 179
501 165 144
854 847 60
160 792 171
436 253 144
80 843 171
645 264 144
298 998 179
92 496 144
640 594 132
716 553 171
561 728 171
418 811 171
686 302 145
169 582 144
90 6 116
843 191 171
814 226 171
409 269 144
434 313 144
603 10 144
508 726 171
539 473 142
111 853 171
236 961 179
92 838 171
125 200 125
925 740 179
109 78 119
10 851 171
225 20 125
276 362 144
982 203 179
56 875 179
903 559 179
32 72 113
39 469 144
534 945 179
120 218 125
443 550 142
784 220 171
307 709 171
938 770 179
43 355 144
41 985 179
128 743 171
898 736 179
876 531 179
478 335 134
320 621 144
235 352 144
536 785 171
600 798 171
745 821 153
801 297 171
843 765 153
530 133 144
206 414 144
960 980 143
144 927 179
672 118 145
544 277 144
214 384 144
324 225 131
42 832 171
77 277 128
474 699 145
207 613 144
131 47 122
301 573 144
149 340 144
879 95 179
835 877 179
849 349 171
566 857 171
673 821 171
664 571 145
462 576 142
104 636 144
245 358 144
541 870 171
775 601 171
975 996 143
817 288 171
512 276 144
36 998 179
251 510 144
477 175 144
639 257 144
88 97 119
829 88 171
139 683 145
152 110 122
11 801 171
913 413 179
967 343 179
415 67 144
133 468 144
250 688 145
808 705 153
412 448 134
643 5 144
80 906 179
451 220 144
995 631 179
285 685 145

